%YAML 1.1
%TAG !u! tag:unity3d.com,2011:
--- !u!1045 &1
EditorBuildSettings:
  m_ObjectHideFlags: 0
  serializedVersion: 2
  m_Scenes:
  - enabled: 0
    path: Assets/Scenes/SC_SampleScene.unity
    guid: 8c9cfa26abfee488c85f1582747f6a02
  - enabled: 0
    path: 
    guid: 00000000000000000000000000000000
  - enabled: 0
    path: Assets/Scenes/SC_SkinSelector.unity
    guid: b446eb12b2d727a44917ab6a87a8b22d
  - enabled: 1
    path: Assets/Scenes/SC_Lobby.unity
    guid: 2df24575da8c2654587b437fd4f96043
  - enabled: 1
    path: Assets/Scenes/SC_Game.unity
    guid: 1b318dd11b7f2064a9c464adc8b925a3
  m_configObjects: {}
  m_UseUCBPForAssetBundles: 0
